35531 45569 324
7103 58417 340
2618 72467 340
38422 6870 324
66196 47452 340
19768 58421 340
70008 62910 330
37967 35453 324
39915 58771 340
11573 45457 324
54888 47642 340
30421 43492 324
25882 67051 340
68236 65357 312
44193 73378 340
21449 7036 279
32543 17601 308
51143 39698 314
38540 60773 340
67517 3483 340
42105 63033 340
39855 33689 324
21043 9236 279
31959 40021 324
28278 30961 272
2079 66380 340
45089 31538 324
69766 57016 335
50754 36973 314
46262 64852 340
72632 45166 340
25313 56114 340
29249 72644 340
16564 51270 324
23984 15653 282
63483 47713 340
40769 75191 340
63078 19174 340
39882 47175 314
2892 75118 340
41646 63937 340
14431 13710 258
74079 9246 340
27337 51391 324
70748 23173 340
40309 21602 324
69086 54378 335
19713 56797 340
44689 26627 324
72693 53489 335
24764 61088 340
14169 45454 324
46898 57229 340
72067 7190 340
34960 14873 311
50934 25324 324
50276 17157 324
39770 38880 275
46413 62944 340
23566 41231 324
63880 580 340
41016 65662 340
49089 65752 340
61929 63232 317
46225 52225 314
31151 53919 340
11510 44662 324
25765 7930 282
44690 46694 314
72966 71419 263
10934 30658 308
36836 34657 324
27093 74758 340
18322 18241 199
14177 4986 276
43092 40212 288
3916 58687 340
62366 74851 330
45874 591 324
37014 68819 340
57374 51623 340
2460 72385 340
31585 69787 340
51604 8369 324
3010 2299 217
64877 31975 340
63919 63527 255
23670 56780 340
11716 72720 340
24818 4173 282
68696 46441 340
55059 21012 340
4993 26888 308
7565 34578 311
72748 33300 340
3231 1247 217
23022 8343 279
38970 68972 340
16214 62743 340
36280 190 324
32806 34048 267
14732 43172 324
20020 37005 324
651 50294 324
22584 64534 340
41767 34239 324
51633 57796 340
5053 53085 340
55844 71291 335
62412 1479 340
52341 1084 324
4455 12613 268
58371 36151 340
12645 17736 279
67893 11216 340
57855 72037 335
32262 33985 267
68481 42716 340
34224 19804 308
65718 47661 340
333 333 113
87382 87382 103
1 1 1
9909 9909 136
289383 289383 128
783920 4 509
48 932850 525
1 999999 525
875 489753 449
893275 298435 525
935485 90 525
