...................
----------------------------------------------------------------------
Ran 19 tests in 8.389s

OK
Name             Stmts   Miss Branch BrPart  Cover   Missing
------------------------------------------------------------
Collatz.py          41      0     20      0   100%
TestCollatz.py      79      0      0      0   100%
------------------------------------------------------------
TOTAL              120      0     20      0   100%
