..................
----------------------------------------------------------------------
Ran 18 tests in 2.156s

OK
Name             Stmts   Miss Branch BrPart  Cover   Missing
------------------------------------------------------------
Collatz.py          44      0     20      0   100%
TestCollatz.py      79      0      0      0   100%
------------------------------------------------------------
TOTAL              123      0     20      0   100%
