1 10 20
100 200 125
201 210 89
900 1000 174
4663 4674 135
1864 3754 238
2607 183 209
69 1307 182
4380 433 238
3447 3960 238
1382 3959 238
1784 925 182
2143 1911 175
2098 2240 183
4202 2357 238
4085 1750 238
4446 2226 238
3241 1675 217
1151 1624 182
673 449 145
290 1753 182
740 2817 209
1875 3567 217
1993 2296 183
365 343 126
2678 2440 209
2709 687 209
4509 3632 238
4107 1926 238
4556 134 238
3589 1595 217
3759 2368 238
2962 4637 238
2620 3402 217
3960 3649 238
4763 2049 238
859 1858 182
1472 142 182
4195 3387 238
2847 1471 209
1440 616 182
1138 4783 238
3413 371 217
1730 2870 209
4694 1650 238
1087 323 179
1079 3453 217
3110 3221 199
4834 3221 238
2206 2433 183
2461 1656 183
151 1238 182
2318 3185 217
2680 4116 238
2915 3605 217
539 1651 182
3994 312 238
2311 2952 217
1922 3422 217
961 2922 217
4797 3141 238
873 867 179
602 4967 238
2260 3410 217
3707 2558 217
3939 53 238
4720 4040 215
1007 4803 238
69 4907 238
1295 1735 180
807 1265 182
577 3633 217
4143 3292 238
4857 2527 238
4016 1757 238
2568 4417 238
3179 3157 199
2163 4706 238
4220 2351 238
4927 2162 238
3064 4269 238
4510 1057 238
3509 4294 238
4313 2981 238
2807 1946 209
1595 3676 217
3475 1364 217
1781 237 182
4401 3798 215
3563 4833 238
1155 4379 238
4522 4375 215
3484 4445 238
860 1165 182
759 3886 238
290 1043 179
4437 2316 238
4436 985 238
3226 3350 181
1240 2968 217
2805 139 209
4117 3222 238
4154 2410 238
2003 4299 238
4638 4899 197
4226 137 238
3551 4237 238
2691 1880 209
4157 4281 202
1518 999 182
2704 2387 209
4713 4815 197
959 728 179
4673 1153 238
858 4643 238
2960 2744 217
4509 898 238
2116 465 182
3210 1638 217
16 1231 182
1170 3520 217
4281 1451 238
3735 3710 238
4447 3088 238
673 1252 182
702 3724 238
1395 1736 180
2024 1819 175
1169 3414 217
3544 1806 217
3489 2778 217
2166 3537 217
4043 3148 238
2482 2938 217
3077 1452 217
3631 116 217
3248 1975 217
2901 3179 217
3801 1499 238
2674 914 209
149 4156 238
879 4841 238
4532 161 238
3107 1115 217
3296 4096 238
4046 235 238
3090 1262 217
4548 1782 238
249 707 171
4204 163 238
1553 4170 238
2635 3559 217
4300 286 238
4546 774 238
