535993 650668 509
449142 564558 470
337872 425477 449
630543 98267 509
814004 258135 509
257955 323640 407
311341 333687 384
976517 984555 427
603251 579922 434
327474 398642 441
243056 532936 470
629905 642935 416
508838 306684 449
904946 837392 525
859678 691391 525
353509 782666 509
388616 318874 441
608136 100819 470
711321 335713 509
771269 161977 509
82110 775587 509
464229 157494 449
401972 933787 525
607899 720150 509
556749 476744 470
735809 381510 509
459227 311675 449
184276 303458 443
845206 852112 419
468276 210064 449
415878 959571 525
938811 260089 525
925912 722616 525
211346 335934 443
968714 475058 525
231808 954301 525
242392 707244 509
651618 375821 509
454525 900953 525
507529 772901 509
357267 703455 509
313424 75263 443
787964 439804 509
216116 719164 509
992782 386305 525
716727 173802 509
729372 197685 509
203938 690855 509
189642 225380 386
483598 779274 509
213687 430810 449
906177 724884 525
150365 942386 525
711903 732173 411
343027 223140 443
138824 560585 470
900431 39321 525
57725 118565 354
659327 304961 509
657727 821565 504
912943 854078 476
2510 138907 354
206854 809849 509
246499 982212 525
869873 332707 525
967895 531533 525
923791 979110 507
99966 177211 383
727242 376892 509
315070 33047 443
737828 619372 509
47389 568935 470
413544 779063 509
621659 293628 470
488958 919942 525
311446 772407 509
621578 905169 525
602552 536129 452
537754 417322 470
893732 228475 525
785522 734578 468
654700 354668 509
742076 821775 468
554170 657793 509
657 194037 383
776449 301467 509
361900 35122 443
60079 577468 470
505261 344799 449
164249 725237 509
94590 622679 470
729784 8589 509
102145 806216 509
402531 476438 449
237877 371317 441
556256 515850 452
203323 244144 443
996803 644539 525
488671 538029 470
991906 923515 507
273594 212638 443
196049 343405 443
115368 117492 349
695999 63020 509
741902 230121 509
98229 481745 449
