..........................
----------------------------------------------------------------------
Ran 26 tests in 1.059s
OK
Name             Stmts   Miss Branch BrPart  Cover   Missing
------------------------------------------------------------
Collatz.py         117      0     46      0   100%
TestCollatz.py     102      0      0      0   100%
------------------------------------------------------------
TOTAL              219      0     46      0   100%
