763774 255069 509
495435 449491 444
651592 788723 504
93859 28347 351
835765 432767 509
762280 2106 509
445387 721540 509
228762 945270 525
901427 30589 525
25445 541412 470
939149 381204 525
216599 422116 449
29040 221691 386
437887 495812 444
233084 230866 350
218781 459603 449
289781 21489 443
837577 556454 509
642294 185906 509
992543 859946 507
120889 332695 443
721484 711191 411
936440 422106 525
830035 670305 504
303368 587580 470
882479 846197 432
505283 589002 470
34525 242739 443
797404 414313 509
173007 548798 470
703040 674485 442
374703 438961 449
508426 778442 509
520938 393255 470
489693 29574 449
43487 703382 509
983187 593183 525
393599 170349 443
502238 982076 525
770523 539617 509
860289 232176 525
513771 952467 525
577794 459131 470
269279 547996 470
957116 5709 525
783655 820485 468
886179 740503 525
809139 518678 509
561357 426090 470
56123 870010 525
569999 199839 470
504720 484925 426
356789 346077 379
538478 623489 452
612452 458146 470
27974 229605 386
177211 584460 470
861008 798438 525
797097 816437 406
255294 841744 525
673113 83234 509
16690 14559 271
755586 249559 509
109488 624802 470
344422 69515 443
159625 527380 470
168144 272914 443
711589 454701 509
322001 473771 449
23634 386557 443
420918 188039 449
108761 899818 525
510115 209090 449
605648 817039 509
20818 17864 274
146461 718835 509
160227 704605 509
678175 544702 509
220599 975594 525
797810 516599 509
223195 648506 509
394898 575845 470
321245 630947 509
58785 298605 443
967903 875534 507
306386 858514 525
310363 939288 525
743842 416172 509
252358 8480 443
878717 37916 525
819414 962201 525
570280 171517 470
867781 973775 507
704023 508873 509
377968 346930 423
205761 674153 509
432950 194118 449
104424 665957 509
296072 499799 449
325345 871621 525
