.................
----------------------------------------------------------------------
Ran 17 tests in 0.044s

OK
Name             Stmts   Miss Branch BrPart  Cover   Missing
------------------------------------------------------------
Collatz.py          32      0     10      0   100%
TestCollatz.py      69      0      0      0   100%
------------------------------------------------------------
TOTAL              101      0     10      0   100%
