1 10 20
100 200 125
201 210 89
900 1000 174
1 1 1
999 999 50
20 15 21
85 85 10
84 84 10
80 80 10
64 64 7
53 53 12
52 52 12
70037 88823 351
99156 18673 351
4130 42197 324
17866 1851 279
59706 75010 335
721 2428 183
46719 98451 351
53335 76839 335
12162 39583 324
18805 24609 282
99973 87656 333
13311 83667 351
7088 4141 262
64902 96444 351
73997 15260 340
30283 27012 272
39748 85332 351
10522 58671 340
31931 20637 308
46043 81049 351
44977 73182 340
47131 48257 314
97463 63937 351
36687 10555 324
56189 97185 351
79029 88587 333
28803 34854 311
61192 8562 340
63260 25444 340
72358 72421 263
82429 36621 351
74608 12418 340
11979 17391 276
21566 93766 351
11691 89557 351
45225 33242 324
63942 53624 335
37453 29470 324
47135 49267 314
34545 80539 351
39467 85219 351
20137 58003 340
85421 11696 351
86831 85478 302
56829 21358 340
78062 78745 307
87661 27289 351
73497 4388 340
87092 53926 351
87209 78225 338
26679 96728 351
28917 59384 340
14004 92820 351
20823 93512 351
84189 40401 351
7230 5795 262
35490 86614 351
67370 66172 268
49145 80073 351
56174 54600 322
74607 72662 294
75645 72192 325
50758 68785 340
87018 71619 351
36075 93040 351
96637 6798 351
15195 43214 324
46939 80652 351
52581 56114 322
44898 61183 340
68682 68524 237
87969 60088 351
769 74328 340
55291 49659 340
45473 16795 324
15722 82035 351
46683 65867 340
54184 7241 340
61698 58470 335
21935 27389 308
26841 95936 351
13259 67430 340
15494 93382 351
92481 24612 351
22185 24871 282
41455 6842 324
77214 3540 351
83073 11460 351
97089 46412 351
89600 16290 351
98680 22852 351
39414 94675 351
98850 86565 333
19554 47311 324
1681 82326 351
42350 45468 314
90812 29940 351
6731 75023 340
80494 67035 351
40227 3512 324
72944 29579 340
25727 59630 340
20247 12840 279
4742 83172 351
77600 19922 351
35504 85856 351
51846 57607 340
82527 51670 351
13328 39822 324
13345 75412 340
13086 91387 351
39865 67402 340
69287 7651 340
35527 2223 311
44029 99577 351
96130 44905 351
5843 83706 351
40462 96525 351
74137 23267 340
59584 66176 335
53171 68491 335
63144 33969 340
43399 40623 288
17893 44538 324
94448 2560 351
